fifoo/qrun.log
QuestaSim-64 qrun 2024.3_1 Utility 2024.10 Oct 17 2024
Start time: 17:47:59 on Aug 26,2025
qrun -batch -access=rw+/. -uvmhome uvm-1.2 -timescale 1ns/1ns -mfcu design.sv testbench.sv -voptargs="+acc=npr" -do " run -all; exit" 
Creating library 'qrun.out/work'.
Mapping library 'mtiUvm' to 'qrun.out/work'.
QuestaSim-64 vlog 2024.3_1 Compiler 2024.10 Oct 17 2024
Start time: 17:47:59 on Aug 26,2025
vlog -timescale 1ns/1ns -mfcu -ccflags "-Wno-missing-declarations" -ccflags "-Wno-maybe-uninitialized" -ccflags "-Wno-return-type" -ccflags "-DQUESTA" /usr/share/questa/questasim/verilog_src/uvm-1.2/src/dpi/uvm_dpi.cc /usr/share/questa/questasim/verilog_src/uvm-1.2/src/uvm_pkg.sv /usr/share/questa/questasim/verilog_src/questa_uvm_pkg-1.2/src/questa_uvm_pkg.sv design.sv testbench.sv -work qrun.out/work "+incdir+/usr/share/questa/questasim/verilog_src/uvm-1.2/src" -statslog qrun.out/stats_log -writesessionid "+qrun.out/top_dus" -csession=incr 
-- Compiling package uvm_pkg (uvm-1.2 Built-in)
-- Compiling package questa_uvm_pkg
-- Importing package uvm_pkg (uvm-1.2 Built-in)
-- Compiling package uvm_pkg_sv_unit
-- Importing package uvm_pkg (uvm-1.2 Built-in)
-- Compiling interface fifo_if
-- Compiling module fifo
-- Compiling module tb_top

Top level modules:
	tb_top
-- Compiling DPI/PLI C++ file /usr/share/questa/questasim/verilog_src/uvm-1.2/src/dpi/uvm_dpi.cc

In file included from /usr/share/questa/questasim/verilog_src/uvm-1.2/src/dpi/uvm_hdl.c:27,
                 from /usr/share/questa/questasim/verilog_src/uvm-1.2/src/dpi/uvm_dpi.cc:37:
/usr/share/questa/questasim/verilog_src/uvm-1.2/src/dpi/uvm_hdl_questa.c: In function 'int uvm_is_vhdl_path(char*)':
/usr/share/questa/questasim/verilog_src/uvm-1.2/src/dpi/uvm_hdl_questa.c:90:12: warning: 'char* strncpy(char*, const char*, size_t)' specified bound depends on the length of the source argument [-Wstringop-overflow=]
   90 |     strncpy(path_copy, path, path_len);
      |     ~~~~~~~^~~~~~~~~~~~~~~~~~~~~~~~~~~
/usr/share/questa/questasim/verilog_src/uvm-1.2/src/dpi/uvm_hdl_questa.c:72:20: note: length computed here
   72 |   path_len = strlen(path);
      |              ~~~~~~^~~~~~

End time: 17:48:03 on Aug 26,2025, Elapsed time: 0:00:04
Errors: 0, Warnings: 0
QuestaSim-64 vopt 2024.3_1 Compiler 2024.10 Oct 17 2024
** Warning: (vopt-10587) Some optimizations are turned off because the +acc switch is in effect. This will cause your simulation to run slowly. Please use -access/-debug to maintain needed visibility. The +acc switch would be deprecated in a future release.
Start time: 17:48:03 on Aug 26,2025
vopt -access=rw+/. -timescale 1ns/1ns -mfcu "+acc=npr" -findtoplevels qrun.out/work+1+ -work qrun.out/work -statslog qrun.out/stats_log -csession=incr -o qrun_opt -csessionid=2 

Top level modules:
	tb_top

Analyzing design...
-- Loading module tb_top
-- Loading package questa_uvm_pkg
-- Loading interface fifo_if
-- Loading module fifo
Optimizing 7 design-units (inlining 0/3 module instances):
-- Optimizing package uvm_pkg (uvm-1.2 Built-in)(fast)
-- Optimizing package questa_uvm_pkg(fast)
-- Optimizing package uvm_pkg_sv_unit(fast)
-- Optimizing module tb_top(fast)
-- Optimizing interface fifo_if(fast__2)
-- Optimizing module fifo(fast)
-- Optimizing interface fifo_if(fast)
Optimized design name is qrun_opt
End time: 17:48:13 on Aug 26,2025, Elapsed time: 0:00:10
Errors: 0, Warnings: 1
# vsim -batch -lib qrun.out/work -do " run -all; exit" -statslog qrun.out/stats_log qrun_opt -appendlog -l qrun.log 
# Start time: 17:48:13 on Aug 26,2025
# Loading /tmp/unknown@e69b56677b50_dpi_51/linux_x86_64_gcc-10.3.0/export_tramp.so
# //  Questa Sim-64
# //  Version 2024.3_1 linux_x86_64 Oct 17 2024
# //
# // Unpublished work. Copyright 2024 Siemens
# //
# // This material contains trade secrets or otherwise confidential information
# // owned by Siemens Industry Software Inc. or its affiliates (collectively,
# // "SISW"), or its licensors. Access to and use of this information is strictly
# // limited as set forth in the Customer's applicable agreements with SISW.
# //
# // This material may not be copied, distributed, or otherwise disclosed outside
# // of the Customer's facilities without the express written permission of SISW,
# // and may not be used in any way not expressly authorized by SISW.
# //
# Loading sv_std.std
# Loading work.fifo_if(fast)
# Loading work.uvm_pkg(fast)
# Loading work.uvm_pkg_sv_unit(fast)
# Loading work.questa_uvm_pkg(fast)
# Loading work.tb_top(fast)
# Loading work.fifo_if(fast__2)
# Loading work.fifo(fast)
# ** Warning: (vsim-8441) Clocking block output vif.cb.din is not legal in this
# or another expression.
#    Time: 0 ps  Iteration: 0  Region: /uvm_pkg_sv_unit File: testbench.sv Line: 122
# ** Warning: (vsim-8441) Clocking block output vif.cb.rd_en is not legal in this
# or another expression.
#    Time: 0 ps  Iteration: 0  Region: /uvm_pkg_sv_unit File: testbench.sv Line: 121
# ** Warning: (vsim-8441) Clocking block output vif.cb.wr_en is not legal in this
# or another expression.
#    Time: 0 ps  Iteration: 0  Region: /uvm_pkg_sv_unit File: testbench.sv Line: 120
# Compiling /tmp/unknown@e69b56677b50_dpi_51/linux_x86_64_gcc-10.3.0/exportwrapper.c
# Loading /tmp/unknown@e69b56677b50_dpi_51/linux_x86_64_gcc-10.3.0/vsim_auto_compile.so
# 
# run -all
# UVM_INFO /usr/share/questa/questasim/verilog_src/uvm-1.2/src/base/uvm_root.svh(392) @ 0: reporter [UVM/RELNOTES] 
# ----------------------------------------------------------------
# UVM-1.2
# (C) 2007-2014 Mentor Graphics Corporation
# (C) 2007-2014 Cadence Design Systems, Inc.
# (C) 2006-2014 Synopsys, Inc.
# (C) 2011-2013 Cypress Semiconductor Corp.
# (C) 2013-2014 NVIDIA Corporation
# ----------------------------------------------------------------
# 
#   ***********       IMPORTANT RELEASE NOTES         ************
# 
#   You are using a version of the UVM library that has been compiled
#   with `UVM_NO_DEPRECATED undefined.
#   See http://www.eda.org/svdb/view.php?id=3313 for more details.
# 
#   You are using a version of the UVM library that has been compiled
#   with `UVM_OBJECT_DO_NOT_NEED_CONSTRUCTOR undefined.
#   See http://www.eda.org/svdb/view.php?id=3770 for more details.
# 
#       (Specify +UVM_NO_RELNOTES to turn off this notice)
# 
# UVM_INFO /usr/share/questa/questasim/verilog_src/questa_uvm_pkg-1.2/src/questa_uvm_pkg.sv(277) @ 0: reporter [Questa UVM] QUESTA_UVM-1.2.3
# UVM_INFO /usr/share/questa/questasim/verilog_src/questa_uvm_pkg-1.2/src/questa_uvm_pkg.sv(278) @ 0: reporter [Questa UVM]  questa_uvm::init(+struct)
# UVM_INFO @ 0: reporter [RNTST] Running test fifo_test...
# UVM_INFO testbench.sv(134) @ 25000: uvm_test_top.env.agent.monitor [MON] MON: wr=1 rd=0 din=91 dout=0
# UVM_INFO testbench.sv(159) @ 25000: uvm_test_top.env.scoreboard [SCOREBOARD] SCOREBOARD: queued 91 (size=1)
# UVM_INFO testbench.sv(134) @ 45000: uvm_test_top.env.agent.monitor [MON] MON: wr=1 rd=0 din=130 dout=0
# UVM_INFO testbench.sv(159) @ 45000: uvm_test_top.env.scoreboard [SCOREBOARD] SCOREBOARD: queued 130 (size=2)
# UVM_INFO testbench.sv(134) @ 65000: uvm_test_top.env.agent.monitor [MON] MON: wr=1 rd=0 din=182 dout=0
# UVM_INFO testbench.sv(159) @ 65000: uvm_test_top.env.scoreboard [SCOREBOARD] SCOREBOARD: queued 182 (size=3)
# UVM_INFO testbench.sv(134) @ 85000: uvm_test_top.env.agent.monitor [MON] MON: wr=1 rd=0 din=205 dout=0
# UVM_INFO testbench.sv(159) @ 85000: uvm_test_top.env.scoreboard [SCOREBOARD] SCOREBOARD: queued 205 (size=4)
# UVM_INFO testbench.sv(134) @ 105000: uvm_test_top.env.agent.monitor [MON] MON: wr=1 rd=0 din=239 dout=0
# UVM_INFO testbench.sv(159) @ 105000: uvm_test_top.env.scoreboard [SCOREBOARD] SCOREBOARD: queued 239 (size=5)
# UVM_INFO testbench.sv(134) @ 125000: uvm_test_top.env.agent.monitor [MON] MON: wr=1 rd=0 din=186 dout=0
# UVM_INFO testbench.sv(159) @ 125000: uvm_test_top.env.scoreboard [SCOREBOARD] SCOREBOARD: queued 186 (size=6)
# UVM_INFO testbench.sv(134) @ 145000: uvm_test_top.env.agent.monitor [MON] MON: wr=1 rd=0 din=43 dout=0
# UVM_INFO testbench.sv(159) @ 145000: uvm_test_top.env.scoreboard [SCOREBOARD] SCOREBOARD: queued 43 (size=7)
# UVM_INFO testbench.sv(134) @ 165000: uvm_test_top.env.agent.monitor [MON] MON: wr=1 rd=0 din=158 dout=0
# UVM_INFO testbench.sv(159) @ 165000: uvm_test_top.env.scoreboard [SCOREBOARD] SCOREBOARD: queued 158 (size=8)
# UVM_INFO testbench.sv(134) @ 195000: uvm_test_top.env.agent.monitor [MON] MON: wr=0 rd=1 din=0 dout=0
# UVM_ERROR testbench.sv(169) @ 195000: uvm_test_top.env.scoreboard [MISMATCH] exp=91 got=0
# UVM_INFO testbench.sv(134) @ 215000: uvm_test_top.env.agent.monitor [MON] MON: wr=0 rd=1 din=0 dout=130
# UVM_INFO testbench.sv(171) @ 215000: uvm_test_top.env.scoreboard [MATCH] READ MATCH 130
# UVM_INFO testbench.sv(134) @ 235000: uvm_test_top.env.agent.monitor [MON] MON: wr=0 rd=1 din=0 dout=182
# UVM_INFO testbench.sv(171) @ 235000: uvm_test_top.env.scoreboard [MATCH] READ MATCH 182
# UVM_INFO testbench.sv(134) @ 255000: uvm_test_top.env.agent.monitor [MON] MON: wr=0 rd=1 din=0 dout=205
# UVM_INFO testbench.sv(171) @ 255000: uvm_test_top.env.scoreboard [MATCH] READ MATCH 205
# UVM_INFO testbench.sv(134) @ 275000: uvm_test_top.env.agent.monitor [MON] MON: wr=0 rd=1 din=0 dout=239
# UVM_INFO testbench.sv(171) @ 275000: uvm_test_top.env.scoreboard [MATCH] READ MATCH 239
# UVM_INFO testbench.sv(134) @ 295000: uvm_test_top.env.agent.monitor [MON] MON: wr=0 rd=1 din=0 dout=186
# UVM_INFO testbench.sv(171) @ 295000: uvm_test_top.env.scoreboard [MATCH] READ MATCH 186
# UVM_INFO testbench.sv(134) @ 315000: uvm_test_top.env.agent.monitor [MON] MON: wr=0 rd=1 din=0 dout=43
# UVM_INFO testbench.sv(171) @ 315000: uvm_test_top.env.scoreboard [MATCH] READ MATCH 43
# UVM_INFO testbench.sv(134) @ 335000: uvm_test_top.env.agent.monitor [MON] MON: wr=0 rd=1 din=0 dout=158
# UVM_INFO testbench.sv(171) @ 335000: uvm_test_top.env.scoreboard [MATCH] READ MATCH 158
# UVM_INFO testbench.sv(134) @ 345000: uvm_test_top.env.agent.monitor [MON] MON: wr=1 rd=0 din=31 dout=158
# UVM_INFO testbench.sv(159) @ 345000: uvm_test_top.env.scoreboard [SCOREBOARD] SCOREBOARD: queued 31 (size=1)
# UVM_INFO testbench.sv(134) @ 365000: uvm_test_top.env.agent.monitor [MON] MON: wr=1 rd=0 din=227 dout=158
# UVM_INFO testbench.sv(159) @ 365000: uvm_test_top.env.scoreboard [SCOREBOARD] SCOREBOARD: queued 227 (size=2)
# UVM_INFO testbench.sv(134) @ 385000: uvm_test_top.env.agent.monitor [MON] MON: wr=1 rd=0 din=161 dout=158
# UVM_INFO testbench.sv(159) @ 385000: uvm_test_top.env.scoreboard [SCOREBOARD] SCOREBOARD: queued 161 (size=3)
# UVM_INFO testbench.sv(134) @ 405000: uvm_test_top.env.agent.monitor [MON] MON: wr=1 rd=0 din=185 dout=158
# UVM_INFO testbench.sv(159) @ 405000: uvm_test_top.env.scoreboard [SCOREBOARD] SCOREBOARD: queued 185 (size=4)
# UVM_INFO testbench.sv(134) @ 425000: uvm_test_top.env.agent.monitor [MON] MON: wr=1 rd=0 din=82 dout=158
# UVM_INFO testbench.sv(159) @ 425000: uvm_test_top.env.scoreboard [SCOREBOARD] SCOREBOARD: queued 82 (size=5)
# UVM_INFO testbench.sv(134) @ 445000: uvm_test_top.env.agent.monitor [MON] MON: wr=1 rd=0 din=217 dout=158
# UVM_INFO testbench.sv(159) @ 445000: uvm_test_top.env.scoreboard [SCOREBOARD] SCOREBOARD: queued 217 (size=6)
# UVM_INFO testbench.sv(134) @ 465000: uvm_test_top.env.agent.monitor [MON] MON: wr=1 rd=0 din=202 dout=158
# UVM_INFO testbench.sv(159) @ 465000: uvm_test_top.env.scoreboard [SCOREBOARD] SCOREBOARD: queued 202 (size=7)
# UVM_INFO testbench.sv(134) @ 485000: uvm_test_top.env.agent.monitor [MON] MON: wr=1 rd=0 din=144 dout=158
# UVM_INFO testbench.sv(159) @ 485000: uvm_test_top.env.scoreboard [SCOREBOARD] SCOREBOARD: queued 144 (size=8)
# UVM_INFO testbench.sv(134) @ 505000: uvm_test_top.env.agent.monitor [MON] MON: wr=1 rd=0 din=179 dout=158
# UVM_INFO testbench.sv(159) @ 505000: uvm_test_top.env.scoreboard [SCOREBOARD] SCOREBOARD: queued 179 (size=9)
# UVM_INFO testbench.sv(134) @ 525000: uvm_test_top.env.agent.monitor [MON] MON: wr=1 rd=0 din=155 dout=158
# UVM_INFO testbench.sv(159) @ 525000: uvm_test_top.env.scoreboard [SCOREBOARD] SCOREBOARD: queued 155 (size=10)
# UVM_INFO testbench.sv(134) @ 545000: uvm_test_top.env.agent.monitor [MON] MON: wr=1 rd=0 din=159 dout=158
# UVM_INFO testbench.sv(159) @ 545000: uvm_test_top.env.scoreboard [SCOREBOARD] SCOREBOARD: queued 159 (size=11)
# UVM_INFO testbench.sv(134) @ 565000: uvm_test_top.env.agent.monitor [MON] MON: wr=1 rd=0 din=254 dout=158
# UVM_INFO testbench.sv(159) @ 565000: uvm_test_top.env.scoreboard [SCOREBOARD] SCOREBOARD: queued 254 (size=12)
# UVM_INFO testbench.sv(134) @ 585000: uvm_test_top.env.agent.monitor [MON] MON: wr=1 rd=0 din=183 dout=158
# UVM_INFO testbench.sv(159) @ 585000: uvm_test_top.env.scoreboard [SCOREBOARD] SCOREBOARD: queued 183 (size=13)
# UVM_INFO testbench.sv(134) @ 605000: uvm_test_top.env.agent.monitor [MON] MON: wr=1 rd=0 din=60 dout=158
# UVM_INFO testbench.sv(159) @ 605000: uvm_test_top.env.scoreboard [SCOREBOARD] SCOREBOARD: queued 60 (size=14)
# UVM_INFO testbench.sv(134) @ 625000: uvm_test_top.env.agent.monitor [MON] MON: wr=1 rd=0 din=97 dout=158
# UVM_INFO testbench.sv(159) @ 625000: uvm_test_top.env.scoreboard [SCOREBOARD] SCOREBOARD: queued 97 (size=15)
# UVM_INFO testbench.sv(134) @ 645000: uvm_test_top.env.agent.monitor [MON] MON: wr=1 rd=0 din=235 dout=158
# UVM_INFO testbench.sv(159) @ 645000: uvm_test_top.env.scoreboard [SCOREBOARD] SCOREBOARD: queued 235 (size=16)
# UVM_INFO testbench.sv(134) @ 665000: uvm_test_top.env.agent.monitor [MON] MON: wr=1 rd=0 din=166 dout=158
# UVM_INFO testbench.sv(159) @ 665000: uvm_test_top.env.scoreboard [SCOREBOARD] SCOREBOARD: queued 166 (size=17)
# UVM_INFO testbench.sv(134) @ 685000: uvm_test_top.env.agent.monitor [MON] MON: wr=1 rd=0 din=49 dout=158
# UVM_INFO testbench.sv(159) @ 685000: uvm_test_top.env.scoreboard [SCOREBOARD] SCOREBOARD: queued 49 (size=18)
# UVM_INFO testbench.sv(134) @ 705000: uvm_test_top.env.agent.monitor [MON] MON: wr=1 rd=0 din=220 dout=158
# UVM_INFO testbench.sv(159) @ 705000: uvm_test_top.env.scoreboard [SCOREBOARD] SCOREBOARD: queued 220 (size=19)
# UVM_INFO testbench.sv(134) @ 735000: uvm_test_top.env.agent.monitor [MON] MON: wr=0 rd=1 din=0 dout=158
# UVM_ERROR testbench.sv(169) @ 735000: uvm_test_top.env.scoreboard [MISMATCH] exp=31 got=158
# UVM_INFO testbench.sv(134) @ 755000: uvm_test_top.env.agent.monitor [MON] MON: wr=0 rd=1 din=0 dout=31
# UVM_ERROR testbench.sv(169) @ 755000: uvm_test_top.env.scoreboard [MISMATCH] exp=227 got=31
# UVM_INFO testbench.sv(134) @ 775000: uvm_test_top.env.agent.monitor [MON] MON: wr=0 rd=1 din=0 dout=227
# UVM_ERROR testbench.sv(169) @ 775000: uvm_test_top.env.scoreboard [MISMATCH] exp=161 got=227
# UVM_INFO testbench.sv(134) @ 795000: uvm_test_top.env.agent.monitor [MON] MON: wr=0 rd=1 din=0 dout=161
# UVM_ERROR testbench.sv(169) @ 795000: uvm_test_top.env.scoreboard [MISMATCH] exp=185 got=161
# UVM_INFO testbench.sv(134) @ 815000: uvm_test_top.env.agent.monitor [MON] MON: wr=0 rd=1 din=0 dout=185
# UVM_ERROR testbench.sv(169) @ 815000: uvm_test_top.env.scoreboard [MISMATCH] exp=82 got=185
# UVM_INFO testbench.sv(134) @ 835000: uvm_test_top.env.agent.monitor [MON] MON: wr=0 rd=1 din=0 dout=82
# UVM_ERROR testbench.sv(169) @ 835000: uvm_test_top.env.scoreboard [MISMATCH] exp=217 got=82
# UVM_INFO testbench.sv(134) @ 855000: uvm_test_top.env.agent.monitor [MON] MON: wr=0 rd=1 din=0 dout=217
# UVM_ERROR testbench.sv(169) @ 855000: uvm_test_top.env.scoreboard [MISMATCH] exp=202 got=217
# UVM_INFO testbench.sv(134) @ 875000: uvm_test_top.env.agent.monitor [MON] MON: wr=0 rd=1 din=0 dout=202
# UVM_ERROR testbench.sv(169) @ 875000: uvm_test_top.env.scoreboard [MISMATCH] exp=144 got=202
# UVM_INFO testbench.sv(134) @ 885000: uvm_test_top.env.agent.monitor [MON] MON: wr=1 rd=0 din=171 dout=144
# UVM_INFO testbench.sv(159) @ 885000: uvm_test_top.env.scoreboard [SCOREBOARD] SCOREBOARD: queued 171 (size=12)
# UVM_INFO testbench.sv(134) @ 905000: uvm_test_top.env.agent.monitor [MON] MON: wr=1 rd=0 din=114 dout=144
# UVM_INFO testbench.sv(159) @ 905000: uvm_test_top.env.scoreboard [SCOREBOARD] SCOREBOARD: queued 114 (size=13)
# UVM_INFO testbench.sv(134) @ 925000: uvm_test_top.env.agent.monitor [MON] MON: wr=1 rd=0 din=17 dout=144
# UVM_INFO testbench.sv(159) @ 925000: uvm_test_top.env.scoreboard [SCOREBOARD] SCOREBOARD: queued 17 (size=14)
# UVM_INFO testbench.sv(134) @ 945000: uvm_test_top.env.agent.monitor [MON] MON: wr=1 rd=0 din=7 dout=144
# UVM_INFO testbench.sv(159) @ 945000: uvm_test_top.env.scoreboard [SCOREBOARD] SCOREBOARD: queued 7 (size=15)
# UVM_INFO testbench.sv(134) @ 965000: uvm_test_top.env.agent.monitor [MON] MON: wr=1 rd=0 din=125 dout=144
# UVM_INFO testbench.sv(159) @ 965000: uvm_test_top.env.scoreboard [SCOREBOARD] SCOREBOARD: queued 125 (size=16)
# UVM_INFO testbench.sv(134) @ 985000: uvm_test_top.env.agent.monitor [MON] MON: wr=1 rd=0 din=32 dout=144
# UVM_INFO testbench.sv(159) @ 985000: uvm_test_top.env.scoreboard [SCOREBOARD] SCOREBOARD: queued 32 (size=17)
# UVM_INFO testbench.sv(134) @ 1005000: uvm_test_top.env.agent.monitor [MON] MON: wr=1 rd=0 din=46 dout=144
# UVM_INFO testbench.sv(159) @ 1005000: uvm_test_top.env.scoreboard [SCOREBOARD] SCOREBOARD: queued 46 (size=18)
# UVM_INFO testbench.sv(134) @ 1025000: uvm_test_top.env.agent.monitor [MON] MON: wr=1 rd=0 din=41 dout=144
# UVM_INFO testbench.sv(159) @ 1025000: uvm_test_top.env.scoreboard [SCOREBOARD] SCOREBOARD: queued 41 (size=19)
# UVM_INFO testbench.sv(134) @ 1045000: uvm_test_top.env.agent.monitor [MON] MON: wr=1 rd=0 din=214 dout=144
# UVM_INFO testbench.sv(159) @ 1045000: uvm_test_top.env.scoreboard [SCOREBOARD] SCOREBOARD: queued 214 (size=20)
# UVM_INFO testbench.sv(134) @ 1065000: uvm_test_top.env.agent.monitor [MON] MON: wr=1 rd=0 din=138 dout=144
# UVM_INFO testbench.sv(159) @ 1065000: uvm_test_top.env.scoreboard [SCOREBOARD] SCOREBOARD: queued 138 (size=21)
# UVM_INFO testbench.sv(134) @ 1095000: uvm_test_top.env.agent.monitor [MON] MON: wr=0 rd=1 din=0 dout=144
# UVM_ERROR testbench.sv(169) @ 1095000: uvm_test_top.env.scoreboard [MISMATCH] exp=179 got=144
# UVM_INFO testbench.sv(134) @ 1105000: uvm_test_top.env.agent.monitor [MON] MON: wr=1 rd=0 din=136 dout=179
# UVM_INFO testbench.sv(159) @ 1105000: uvm_test_top.env.scoreboard [SCOREBOARD] SCOREBOARD: queued 136 (size=21)
# UVM_INFO testbench.sv(134) @ 1125000: uvm_test_top.env.agent.monitor [MON] MON: wr=1 rd=0 din=149 dout=179
# UVM_INFO testbench.sv(159) @ 1125000: uvm_test_top.env.scoreboard [SCOREBOARD] SCOREBOARD: queued 149 (size=22)
# UVM_INFO testbench.sv(134) @ 1145000: uvm_test_top.env.agent.monitor [MON] MON: wr=1 rd=0 din=118 dout=179
# UVM_INFO testbench.sv(159) @ 1145000: uvm_test_top.env.scoreboard [SCOREBOARD] SCOREBOARD: queued 118 (size=23)
# UVM_INFO testbench.sv(134) @ 1165000: uvm_test_top.env.agent.monitor [MON] MON: wr=1 rd=0 din=193 dout=179
# UVM_INFO testbench.sv(159) @ 1165000: uvm_test_top.env.scoreboard [SCOREBOARD] SCOREBOARD: queued 193 (size=24)
# UVM_INFO testbench.sv(134) @ 1185000: uvm_test_top.env.agent.monitor [MON] MON: wr=1 rd=0 din=209 dout=179
# UVM_INFO testbench.sv(159) @ 1185000: uvm_test_top.env.scoreboard [SCOREBOARD] SCOREBOARD: queued 209 (size=25)
# UVM_INFO testbench.sv(134) @ 1205000: uvm_test_top.env.agent.monitor [MON] MON: wr=1 rd=0 din=153 dout=179
# UVM_INFO testbench.sv(159) @ 1205000: uvm_test_top.env.scoreboard [SCOREBOARD] SCOREBOARD: queued 153 (size=26)
# UVM_INFO testbench.sv(134) @ 1225000: uvm_test_top.env.agent.monitor [MON] MON: wr=1 rd=0 din=142 dout=179
# UVM_INFO testbench.sv(159) @ 1225000: uvm_test_top.env.scoreboard [SCOREBOARD] SCOREBOARD: queued 142 (size=27)
# UVM_INFO testbench.sv(134) @ 1245000: uvm_test_top.env.agent.monitor [MON] MON: wr=1 rd=0 din=242 dout=179
# UVM_INFO testbench.sv(159) @ 1245000: uvm_test_top.env.scoreboard [SCOREBOARD] SCOREBOARD: queued 242 (size=28)
# UVM_INFO testbench.sv(134) @ 1275000: uvm_test_top.env.agent.monitor [MON] MON: wr=0 rd=1 din=0 dout=179
# UVM_ERROR testbench.sv(169) @ 1275000: uvm_test_top.env.scoreboard [MISMATCH] exp=155 got=179
# UVM_INFO testbench.sv(134) @ 1295000: uvm_test_top.env.agent.monitor [MON] MON: wr=0 rd=1 din=0 dout=155
# UVM_ERROR testbench.sv(169) @ 1295000: uvm_test_top.env.scoreboard [MISMATCH] exp=159 got=155
# UVM_INFO testbench.sv(134) @ 1305000: uvm_test_top.env.agent.monitor [MON] MON: wr=1 rd=0 din=64 dout=159
# UVM_INFO testbench.sv(159) @ 1305000: uvm_test_top.env.scoreboard [SCOREBOARD] SCOREBOARD: queued 64 (size=27)
# UVM_INFO testbench.sv(134) @ 1335000: uvm_test_top.env.agent.monitor [MON] MON: wr=0 rd=1 din=0 dout=159
# UVM_ERROR testbench.sv(169) @ 1335000: uvm_test_top.env.scoreboard [MISMATCH] exp=254 got=159
# UVM_INFO testbench.sv(134) @ 1345000: uvm_test_top.env.agent.monitor [MON] MON: wr=1 rd=0 din=52 dout=254
# UVM_INFO testbench.sv(159) @ 1345000: uvm_test_top.env.scoreboard [SCOREBOARD] SCOREBOARD: queued 52 (size=27)
# UVM_INFO testbench.sv(134) @ 1365000: uvm_test_top.env.agent.monitor [MON] MON: wr=1 rd=0 din=101 dout=254
# UVM_INFO testbench.sv(159) @ 1365000: uvm_test_top.env.scoreboard [SCOREBOARD] SCOREBOARD: queued 101 (size=28)
# UVM_INFO testbench.sv(134) @ 1385000: uvm_test_top.env.agent.monitor [MON] MON: wr=1 rd=0 din=51 dout=254
# UVM_INFO testbench.sv(159) @ 1385000: uvm_test_top.env.scoreboard [SCOREBOARD] SCOREBOARD: queued 51 (size=29)
# UVM_INFO testbench.sv(134) @ 1405000: uvm_test_top.env.agent.monitor [MON] MON: wr=1 rd=0 din=15 dout=254
# UVM_INFO testbench.sv(159) @ 1405000: uvm_test_top.env.scoreboard [SCOREBOARD] SCOREBOARD: queued 15 (size=30)
# UVM_INFO testbench.sv(134) @ 1425000: uvm_test_top.env.agent.monitor [MON] MON: wr=1 rd=0 din=123 dout=254
# UVM_INFO testbench.sv(159) @ 1425000: uvm_test_top.env.scoreboard [SCOREBOARD] SCOREBOARD: queued 123 (size=31)
# UVM_INFO testbench.sv(134) @ 1455000: uvm_test_top.env.agent.monitor [MON] MON: wr=0 rd=1 din=0 dout=254
# UVM_ERROR testbench.sv(169) @ 1455000: uvm_test_top.env.scoreboard [MISMATCH] exp=183 got=254
# UVM_INFO testbench.sv(134) @ 1475000: uvm_test_top.env.agent.monitor [MON] MON: wr=0 rd=1 din=0 dout=183
# UVM_ERROR testbench.sv(169) @ 1475000: uvm_test_top.env.scoreboard [MISMATCH] exp=60 got=183
# UVM_INFO testbench.sv(134) @ 1485000: uvm_test_top.env.agent.monitor [MON] MON: wr=1 rd=0 din=247 dout=60
# UVM_INFO testbench.sv(159) @ 1485000: uvm_test_top.env.scoreboard [SCOREBOARD] SCOREBOARD: queued 247 (size=30)
# UVM_INFO testbench.sv(134) @ 1515000: uvm_test_top.env.agent.monitor [MON] MON: wr=0 rd=1 din=0 dout=60
# UVM_ERROR testbench.sv(169) @ 1515000: uvm_test_top.env.scoreboard [MISMATCH] exp=97 got=60
# UVM_INFO testbench.sv(134) @ 1535000: uvm_test_top.env.agent.monitor [MON] MON: wr=0 rd=1 din=0 dout=97
# UVM_ERROR testbench.sv(169) @ 1535000: uvm_test_top.env.scoreboard [MISMATCH] exp=235 got=97
# UVM_INFO testbench.sv(134) @ 1545000: uvm_test_top.env.agent.monitor [MON] MON: wr=1 rd=0 din=156 dout=235
# UVM_INFO testbench.sv(159) @ 1545000: uvm_test_top.env.scoreboard [SCOREBOARD] SCOREBOARD: queued 156 (size=29)
# UVM_INFO testbench.sv(134) @ 1565000: uvm_test_top.env.agent.monitor [MON] MON: wr=1 rd=0 din=97 dout=235
# UVM_INFO testbench.sv(159) @ 1565000: uvm_test_top.env.scoreboard [SCOREBOARD] SCOREBOARD: queued 97 (size=30)
# UVM_INFO testbench.sv(134) @ 1585000: uvm_test_top.env.agent.monitor [MON] MON: wr=1 rd=0 din=3 dout=235
# UVM_INFO testbench.sv(159) @ 1585000: uvm_test_top.env.scoreboard [SCOREBOARD] SCOREBOARD: queued 3 (size=31)
# UVM_INFO testbench.sv(134) @ 1605000: uvm_test_top.env.agent.monitor [MON] MON: wr=1 rd=0 din=64 dout=235
# UVM_INFO testbench.sv(159) @ 1605000: uvm_test_top.env.scoreboard [SCOREBOARD] SCOREBOARD: queued 64 (size=32)
# UVM_INFO testbench.sv(134) @ 1625000: uvm_test_top.env.agent.monitor [MON] MON: wr=1 rd=0 din=134 dout=235
# UVM_INFO testbench.sv(159) @ 1625000: uvm_test_top.env.scoreboard [SCOREBOARD] SCOREBOARD: queued 134 (size=33)
# UVM_INFO testbench.sv(134) @ 1645000: uvm_test_top.env.agent.monitor [MON] MON: wr=1 rd=0 din=140 dout=235
# UVM_INFO testbench.sv(159) @ 1645000: uvm_test_top.env.scoreboard [SCOREBOARD] SCOREBOARD: queued 140 (size=34)
# UVM_INFO testbench.sv(134) @ 1665000: uvm_test_top.env.agent.monitor [MON] MON: wr=1 rd=0 din=79 dout=235
# UVM_INFO testbench.sv(159) @ 1665000: uvm_test_top.env.scoreboard [SCOREBOARD] SCOREBOARD: queued 79 (size=35)
# UVM_INFO testbench.sv(134) @ 1685000: uvm_test_top.env.agent.monitor [MON] MON: wr=1 rd=0 din=29 dout=235
# UVM_INFO testbench.sv(159) @ 1685000: uvm_test_top.env.scoreboard [SCOREBOARD] SCOREBOARD: queued 29 (size=36)
# UVM_INFO testbench.sv(134) @ 1705000: uvm_test_top.env.agent.monitor [MON] MON: wr=1 rd=0 din=20 dout=235
# UVM_INFO testbench.sv(159) @ 1705000: uvm_test_top.env.scoreboard [SCOREBOARD] SCOREBOARD: queued 20 (size=37)
# UVM_INFO testbench.sv(134) @ 1735000: uvm_test_top.env.agent.monitor [MON] MON: wr=0 rd=1 din=0 dout=235
# UVM_ERROR testbench.sv(169) @ 1735000: uvm_test_top.env.scoreboard [MISMATCH] exp=166 got=235
# UVM_INFO testbench.sv(134) @ 1745000: uvm_test_top.env.agent.monitor [MON] MON: wr=1 rd=0 din=0 dout=171
# UVM_INFO testbench.sv(159) @ 1745000: uvm_test_top.env.scoreboard [SCOREBOARD] SCOREBOARD: queued 0 (size=37)
# UVM_INFO testbench.sv(134) @ 1765000: uvm_test_top.env.agent.monitor [MON] MON: wr=1 rd=0 din=213 dout=171
# UVM_INFO testbench.sv(159) @ 1765000: uvm_test_top.env.scoreboard [SCOREBOARD] SCOREBOARD: queued 213 (size=38)
# UVM_INFO testbench.sv(134) @ 1785000: uvm_test_top.env.agent.monitor [MON] MON: wr=1 rd=0 din=254 dout=171
